{
  "indexes": [
    {
      "collectionGroup": "entity1",
      "queryScope": "COLLECTION",
      "fields": [
        {
          "fieldPath": "keywords",
          "arrayConfig": "CONTAINS"
        },
        {
          "fieldPath": "firestoreGeoLocation",
          "order": "ASCENDING"
        }
      ]
    }
  ],
  "fieldOverrides": []
}
